{
    "KPlugin": {
        "Description": "Runs a custom script",
        "Description[ar]": "تشغل سكربت مخصص",
        "Description[be]": "Запуск адвольнага скрыпта",
        "Description[bg]": "Изпълнява персонализиран скрипт",
        "Description[ca@valencia]": "Executa un script personalitzat",
        "Description[ca]": "Executa un script personalitzat",
        "Description[cs]": "Spustit vlastní skript",
        "Description[de]": "Führt ein benutzerdefiniertes Skript aus",
        "Description[en_GB]": "Runs a custom script",
        "Description[eo]": "Rulas kutiman skripton",
        "Description[es]": "Ejecuta un script personalizado",
        "Description[eu]": "Norberak finkatutako gidoi bat exekutatzen du",
        "Description[fi]": "Suorittaa mukautetun skriptin",
        "Description[fr]": "Démarre un script personnalisé",
        "Description[ia]": "Il exeque un script personalisate",
        "Description[it]": "Esegue uno script personalizzato",
        "Description[ka]": "ხელით მითითებული სკრიპტის გაშვება",
        "Description[ko]": "사용자 정의 스크립트를 실행합니다",
        "Description[lt]": "Paleidžia tinkintą scenarijų",
        "Description[nl]": "Een eigen script uitvoeren",
        "Description[nn]": "Køyr eit eigedefinert skript",
        "Description[pl]": "Wykonuje własny skrypt",
        "Description[pt]": "Executa um programa personalizado",
        "Description[pt_BR]": "Executa um script personalizado",
        "Description[ru]": "Запускает пользовательский сценарий",
        "Description[sl]": "Zažene skript po meri",
        "Description[sv]": "Kör ett eget skript",
        "Description[ta]": "விருப்பமான சிறுநிரலை இயக்கும்",
        "Description[tr]": "Özel bir betik çalıştırır",
        "Description[uk]": "Запускає вказаний користувачем скрипт",
        "Description[x-test]": "xxRuns a custom scriptxx",
        "Description[zh_CN]": "运行自定义脚本",
        "Description[zh_TW]": "執行自訂文稿",
        "Icon": "system-run",
        "Name": "Run script",
        "Name[ar]": "شغل سكربت",
        "Name[az]": "Skripti başlatmaq",
        "Name[be]": "Запусціць скрыпт",
        "Name[bg]": "Изпълняване на скрипт",
        "Name[bs]": "Pokreni skriptu",
        "Name[ca@valencia]": "Executa un script",
        "Name[ca]": "Executa un script",
        "Name[cs]": "Spustit skript",
        "Name[da]": "Kør script",
        "Name[de]": "Skript ausführen",
        "Name[el]": "Εκτέλεση σεναρίου",
        "Name[en_GB]": "Run script",
        "Name[eo]": "Ruli skripton",
        "Name[es]": "Ejecutar guion",
        "Name[et]": "Skripti käivitamine",
        "Name[eu]": "Exekutatu scripta",
        "Name[fi]": "Suorita skripti",
        "Name[fr]": "Lancer un script ",
        "Name[gl]": "Executar un script",
        "Name[he]": "הרץ סקריפט",
        "Name[hu]": "Parancsfájl futtatása",
        "Name[ia]": "Exeque Script",
        "Name[id]": "Jalankan skrip",
        "Name[it]": "Esegui script",
        "Name[ja]": "スクリプトを実行",
        "Name[ka]": "სკრიპტის გაშვება",
        "Name[ko]": "스크립트 실행",
        "Name[lt]": "Paleisti scenarijų",
        "Name[ml]": "സ്ക്രിപ്റ്റ് ഓടിക്കുക",
        "Name[nb]": "Kjør skript",
        "Name[nds]": "Skript utföhren",
        "Name[nl]": "Script uitvoeren",
        "Name[nn]": "Køyr skript",
        "Name[pa]": "ਸਕ੍ਰਿਪਟ ਚਲਾਓ",
        "Name[pl]": "Wykonaj skrypt",
        "Name[pt]": "Executar um programa",
        "Name[pt_BR]": "Executar script",
        "Name[ro]": "Rulează script",
        "Name[ru]": "Запуск сценария",
        "Name[sk]": "Spustiť skript",
        "Name[sl]": "Zaženi skript",
        "Name[sr@ijekavian]": "Изврши скрипту",
        "Name[sr@ijekavianlatin]": "Izvrši skriptu",
        "Name[sr@latin]": "Izvrši skriptu",
        "Name[sr]": "Изврши скрипту",
        "Name[sv]": "Kör skript",
        "Name[ta]": "சிறுநிரலை இயக்கு",
        "Name[tg]": "Иҷро кардани нақш",
        "Name[tr]": "Betik çalıştır",
        "Name[uk]": "Виконати скрипт",
        "Name[x-test]": "xxRun scriptxx",
        "Name[zh_CN]": "运行脚本",
        "Name[zh_TW]": "執行文稿"
    },
    "X-KDE-PowerDevil-Action-ConfigPriority": 70,
    "X-KDE-PowerDevil-Action-ID": "RunScript",
    "X-KDE-PowerDevil-Action-UIComponentLibrary": "powerdevilrunscriptaction_config"
}
